VHDL/simulation/qsim/DCalles_Lab4_OctalDecoder.msim.vcd
$comment
	File created using the following command:
		vcd file DCalles_Lab4_OctalDecoder.msim.vcd -direction
$end
$date
	Tue Jun 15 17:00:19 2021
$end
$version
	ModelSim Version 2020.1
$end
$timescale
	1ps
$end

$scope module dcalles_lab4_octaldecoder_vhd_vec_tst $end
$var wire 1 ! clk $end
$var wire 1 " X [2] $end
$var wire 1 # X [1] $end
$var wire 1 $ X [0] $end
$var wire 1 % Y [7] $end
$var wire 1 & Y [6] $end
$var wire 1 ' Y [5] $end
$var wire 1 ( Y [4] $end
$var wire 1 ) Y [3] $end
$var wire 1 * Y [2] $end
$var wire 1 + Y [1] $end
$var wire 1 , Y [0] $end

$scope module i1 $end
$var wire 1 - gnd $end
$var wire 1 . vcc $end
$var wire 1 / unknown $end
$var wire 1 0 devoe $end
$var wire 1 1 devclrn $end
$var wire 1 2 devpor $end
$var wire 1 3 ww_devoe $end
$var wire 1 4 ww_devclrn $end
$var wire 1 5 ww_devpor $end
$var wire 1 6 ww_clk $end
$var wire 1 7 ww_X [2] $end
$var wire 1 8 ww_X [1] $end
$var wire 1 9 ww_X [0] $end
$var wire 1 : ww_Y [7] $end
$var wire 1 ; ww_Y [6] $end
$var wire 1 < ww_Y [5] $end
$var wire 1 = ww_Y [4] $end
$var wire 1 > ww_Y [3] $end
$var wire 1 ? ww_Y [2] $end
$var wire 1 @ ww_Y [1] $end
$var wire 1 A ww_Y [0] $end
$var wire 1 B \~QUARTUS_CREATED_GND~I_combout\ $end
$var wire 1 C \clk~input_o\ $end
$var wire 1 D \Counter_28bit1|DFF0|q~0_combout\ $end
$var wire 1 E \Counter_28bit1|DFF0|q~q\ $end
$var wire 1 F \X[1]~input_o\ $end
$var wire 1 G \X[2]~input_o\ $end
$var wire 1 H \X[0]~input_o\ $end
$var wire 1 I \Mux7~0_combout\ $end
$var wire 1 J \Counter_28bit1|DFF1|q~0_combout\ $end
$var wire 1 K \Counter_28bit1|DFF1|q~feeder_combout\ $end
$var wire 1 L \Counter_28bit1|DFF1|q~q\ $end
$var wire 1 M \Mux6~0_combout\ $end
$var wire 1 N \Counter_28bit1|DFF2|q~0_combout\ $end
$var wire 1 O \Counter_28bit1|DFF2|q~feeder_combout\ $end
$var wire 1 P \Counter_28bit1|DFF2|q~q\ $end
$var wire 1 Q \Mux5~0_combout\ $end
$var wire 1 R \Counter_28bit1|DFF3|q~0_combout\ $end
$var wire 1 S \Counter_28bit1|DFF3|q~q\ $end
$var wire 1 T \Mux4~0_combout\ $end
$var wire 1 U \Counter_28bit1|DFF4|q~0_combout\ $end
$var wire 1 V \Counter_28bit1|DFF4|q~q\ $end
$var wire 1 W \Mux3~0_combout\ $end
$var wire 1 X \Counter_28bit1|DFF5|q~0_combout\ $end
$var wire 1 Y \Counter_28bit1|DFF5|q~feeder_combout\ $end
$var wire 1 Z \Counter_28bit1|DFF5|q~q\ $end
$var wire 1 [ \Mux2~0_combout\ $end
$var wire 1 \ \Counter_28bit1|DFF6|q~0_combout\ $end
$var wire 1 ] \Counter_28bit1|DFF6|q~feeder_combout\ $end
$var wire 1 ^ \Counter_28bit1|DFF6|q~q\ $end
$var wire 1 _ \Mux1~0_combout\ $end
$var wire 1 ` \Counter_28bit1|DFF7|q~q\ $end
$var wire 1 a \Counter_28bit1|DFF7|q~0_combout\ $end
$var wire 1 b \Counter_28bit1|DFF7|q~feeder_combout\ $end
$var wire 1 c \Counter_28bit1|DFF7|q~DUPLICATE_q\ $end
$var wire 1 d \Mux0~0_combout\ $end
$var wire 1 e \Counter_28bit1|DFF7|ALT_INV_q~DUPLICATE_q\ $end
$var wire 1 f \ALT_INV_X[1]~input_o\ $end
$var wire 1 g \ALT_INV_X[0]~input_o\ $end
$var wire 1 h \ALT_INV_X[2]~input_o\ $end
$var wire 1 i \Counter_28bit1|DFF7|ALT_INV_q~0_combout\ $end
$var wire 1 j \Counter_28bit1|DFF6|ALT_INV_q~0_combout\ $end
$var wire 1 k \Counter_28bit1|DFF5|ALT_INV_q~0_combout\ $end
$var wire 1 l \Counter_28bit1|DFF2|ALT_INV_q~0_combout\ $end
$var wire 1 m \Counter_28bit1|DFF1|ALT_INV_q~0_combout\ $end
$var wire 1 n \Counter_28bit1|DFF7|ALT_INV_q~q\ $end
$var wire 1 o \Counter_28bit1|DFF6|ALT_INV_q~q\ $end
$var wire 1 p \Counter_28bit1|DFF5|ALT_INV_q~q\ $end
$var wire 1 q \Counter_28bit1|DFF4|ALT_INV_q~q\ $end
$var wire 1 r \Counter_28bit1|DFF3|ALT_INV_q~q\ $end
$var wire 1 s \Counter_28bit1|DFF2|ALT_INV_q~q\ $end
$var wire 1 t \Counter_28bit1|DFF1|ALT_INV_q~q\ $end
$var wire 1 u \Counter_28bit1|DFF0|ALT_INV_q~q\ $end
$upscope $end
$upscope $end
$enddefinitions $end
#0
$dumpvars
0!
0-
1.
x/
10
11
12
13
14
15
06
xB
0C
1D
0E
1F
0G
0H
0I
1J
1K
0L
0M
1N
1O
0P
0Q
1R
0S
0T
1U
0V
0W
1X
1Y
0Z
0[
1\
1]
0^
0_
0`
1a
1b
0c
0d
1e
0f
1g
1h
0i
0j
0k
0l
0m
1n
1o
1p
1q
1r
1s
1t
1u
0"
1#
0$
0%
0&
0'
0(
0)
0*
0+
0,
07
18
09
0:
0;
0<
0=
0>
0?
0@
0A
$end
#20000
1!
16
1C
1E
0u
0D
#40000
0!
06
0C
#60000
1!
16
1C
0E
1u
1D
1L
0t
0J
1m
0K
#80000
0!
06
0C
#100000
1!
16
1C
1E
0u
0D
#120000
0!
06
0C
#140000
1!
16
1C
0E
1u
1D
0L
1t
1J
1P
0s
0m
1K
0N
1Q
1l
0O
1?
1*
#160000
0!
06
0C
#180000
1!
16
1C
1E
0u
0D
#200000
0!
06
0C
#220000
1!
16
1C
0E
1u
1D
1L
0t
0J
1m
0K
#240000
0!
06
0C
#260000
1!
16
1C
1E
0u
0D
#280000
0!
06
0C
#300000
1!
16
1C
0E
1u
1D
0L
1t
1J
0P
1s
0m
1K
1N
0Q
1S
0r
0l
1O
0R
0?
0*
#320000
0!
06
0C
#340000
1!
16
1C
1E
0u
0D
#360000
0!
06
0C
#380000
1!
16
1C
0E
1u
1D
1L
0t
0J
1m
0K
#400000
0!
06
0C
#420000
1!
16
1C
1E
0u
0D
#440000
0!
06
0C
#460000
1!
16
1C
0E
1u
1D
0L
1t
1J
1P
0s
0m
1K
0N
1Q
1l
0O
1?
1*
#480000
0!
06
0C
#500000
1!
16
1C
1E
0u
0D
#520000
0!
06
0C
#540000
1!
16
1C
0E
1u
1D
1L
0t
0J
1m
0K
#560000
0!
06
0C
#580000
1!
16
1C
1E
0u
0D
#600000
0!
06
0C
#620000
1!
16
1C
0E
1u
1D
0L
1t
1J
0P
1s
0m
1K
1N
0Q
0S
1r
0l
1O
1R
1V
0q
0?
0U
0*
#640000
0!
06
0C
#660000
1!
16
1C
1E
0u
0D
#680000
0!
06
0C
#700000
1!
16
1C
0E
1u
1D
1L
0t
0J
1m
0K
#720000
0!
06
0C
#740000
1!
16
1C
1E
0u
0D
#760000
0!
06
0C
#780000
1!
16
1C
0E
1u
1D
0L
1t
1J
1P
0s
0m
1K
0N
1Q
1l
0O
1?
1*
#800000
0!
06
0C
#820000
1!
16
1C
1E
0u
0D
#840000
0!
06
0C
#860000
1!
16
1C
0E
1u
1D
1L
0t
0J
1m
0K
#880000
0!
06
0C
#900000
1!
16
1C
1E
0u
0D
#920000
0!
06
0C
#940000
1!
16
1C
0E
1u
1D
0L
1t
1J
0P
1s
0m
1K
1N
0Q
1S
0r
0l
1O
0R
0?
0*
#960000
0!
06
0C
#980000
1!
16
1C
1E
0u
0D
#990000
0#
08
0F
1f
1I
1A
1,
