VHDL/simulation/qsim/DCalles_Lab4_OctalDecoder.msim.vcd
$comment
	File created using the following command:
		vcd file DCalles_Lab4_OctalDecoder.msim.vcd -direction
$end
$date
	Thu Jun 17 18:22:47 2021
$end
$version
	ModelSim Version 2020.1
$end
$timescale
	1ps
$end

$scope module dcalles_lab4_octaldecoder_vhd_vec_tst $end
$var wire 1 ! clk $end
$var wire 1 " selector [2] $end
$var wire 1 # selector [1] $end
$var wire 1 $ selector [0] $end
$var wire 1 % Y [7] $end
$var wire 1 & Y [6] $end
$var wire 1 ' Y [5] $end
$var wire 1 ( Y [4] $end
$var wire 1 ) Y [3] $end
$var wire 1 * Y [2] $end
$var wire 1 + Y [1] $end
$var wire 1 , Y [0] $end

$scope module i1 $end
$var wire 1 - gnd $end
$var wire 1 . vcc $end
$var wire 1 / unknown $end
$var wire 1 0 devoe $end
$var wire 1 1 devclrn $end
$var wire 1 2 devpor $end
$var wire 1 3 ww_devoe $end
$var wire 1 4 ww_devclrn $end
$var wire 1 5 ww_devpor $end
$var wire 1 6 ww_clk $end
$var wire 1 7 ww_selector [2] $end
$var wire 1 8 ww_selector [1] $end
$var wire 1 9 ww_selector [0] $end
$var wire 1 : ww_Y [7] $end
$var wire 1 ; ww_Y [6] $end
$var wire 1 < ww_Y [5] $end
$var wire 1 = ww_Y [4] $end
$var wire 1 > ww_Y [3] $end
$var wire 1 ? ww_Y [2] $end
$var wire 1 @ ww_Y [1] $end
$var wire 1 A ww_Y [0] $end
$var wire 1 B \~QUARTUS_CREATED_GND~I_combout\ $end
$var wire 1 C \clk~input_o\ $end
$var wire 1 D \Counter_32bit1|DFF0|q~0_combout\ $end
$var wire 1 E \Counter_32bit1|DFF0|q~feeder_combout\ $end
$var wire 1 F \Counter_32bit1|DFF0|q~q\ $end
$var wire 1 G \Counter_32bit1|DFF1|q~0_combout\ $end
$var wire 1 H \Counter_32bit1|DFF1|q~q\ $end
$var wire 1 I \Counter_32bit1|DFF2|q~0_combout\ $end
$var wire 1 J \Counter_32bit1|DFF2|q~feeder_combout\ $end
$var wire 1 K \Counter_32bit1|DFF2|q~q\ $end
$var wire 1 L \Counter_32bit1|DFF3|q~0_combout\ $end
$var wire 1 M \Counter_32bit1|DFF3|q~feeder_combout\ $end
$var wire 1 N \Counter_32bit1|DFF3|q~q\ $end
$var wire 1 O \Counter_32bit1|DFF4|q~0_combout\ $end
$var wire 1 P \Counter_32bit1|DFF4|q~feeder_combout\ $end
$var wire 1 Q \Counter_32bit1|DFF4|q~q\ $end
$var wire 1 R \Counter_32bit1|DFF5|q~0_combout\ $end
$var wire 1 S \Counter_32bit1|DFF5|q~feeder_combout\ $end
$var wire 1 T \Counter_32bit1|DFF5|q~q\ $end
$var wire 1 U \Counter_32bit1|DFF6|q~0_combout\ $end
$var wire 1 V \Counter_32bit1|DFF6|q~feeder_combout\ $end
$var wire 1 W \Counter_32bit1|DFF6|q~q\ $end
$var wire 1 X \Counter_32bit1|DFF7|q~0_combout\ $end
$var wire 1 Y \Counter_32bit1|DFF7|q~feeder_combout\ $end
$var wire 1 Z \Counter_32bit1|DFF7|q~q\ $end
$var wire 1 [ \Counter_32bit1|DFF8|q~0_combout\ $end
$var wire 1 \ \Counter_32bit1|DFF8|q~feeder_combout\ $end
$var wire 1 ] \Counter_32bit1|DFF8|q~q\ $end
$var wire 1 ^ \Counter_32bit1|DFF9|q~0_combout\ $end
$var wire 1 _ \Counter_32bit1|DFF9|q~feeder_combout\ $end
$var wire 1 ` \Counter_32bit1|DFF9|q~q\ $end
$var wire 1 a \Counter_32bit1|DFF10|q~0_combout\ $end
$var wire 1 b \Counter_32bit1|DFF10|q~feeder_combout\ $end
$var wire 1 c \Counter_32bit1|DFF10|q~q\ $end
$var wire 1 d \Counter_32bit1|DFF11|q~0_combout\ $end
$var wire 1 e \Counter_32bit1|DFF11|q~q\ $end
$var wire 1 f \Counter_32bit1|DFF12|q~0_combout\ $end
$var wire 1 g \Counter_32bit1|DFF12|q~feeder_combout\ $end
$var wire 1 h \Counter_32bit1|DFF12|q~q\ $end
$var wire 1 i \Counter_32bit1|DFF13|q~0_combout\ $end
$var wire 1 j \Counter_32bit1|DFF13|q~q\ $end
$var wire 1 k \Counter_32bit1|DFF14|q~0_combout\ $end
$var wire 1 l \Counter_32bit1|DFF14|q~feeder_combout\ $end
$var wire 1 m \Counter_32bit1|DFF14|q~q\ $end
$var wire 1 n \Counter_32bit1|DFF15|q~0_combout\ $end
$var wire 1 o \Counter_32bit1|DFF15|q~feeder_combout\ $end
$var wire 1 p \Counter_32bit1|DFF15|q~q\ $end
$var wire 1 q \Counter_32bit1|DFF16|q~0_combout\ $end
$var wire 1 r \Counter_32bit1|DFF16|q~feeder_combout\ $end
$var wire 1 s \Counter_32bit1|DFF16|q~q\ $end
$var wire 1 t \Counter_32bit1|DFF17|q~0_combout\ $end
$var wire 1 u \Counter_32bit1|DFF17|q~feeder_combout\ $end
$var wire 1 v \Counter_32bit1|DFF17|q~q\ $end
$var wire 1 w \Counter_32bit1|DFF18|q~0_combout\ $end
$var wire 1 x \Counter_32bit1|DFF18|q~feeder_combout\ $end
$var wire 1 y \Counter_32bit1|DFF18|q~q\ $end
$var wire 1 z \Counter_32bit1|DFF19|q~0_combout\ $end
$var wire 1 { \Counter_32bit1|DFF19|q~feeder_combout\ $end
$var wire 1 | \Counter_32bit1|DFF19|q~q\ $end
$var wire 1 } \Counter_32bit1|DFF20|q~0_combout\ $end
$var wire 1 ~ \Counter_32bit1|DFF20|q~feeder_combout\ $end
$var wire 1 !! \Counter_32bit1|DFF20|q~q\ $end
$var wire 1 "! \Counter_32bit1|DFF21|q~0_combout\ $end
$var wire 1 #! \Counter_32bit1|DFF21|q~feeder_combout\ $end
$var wire 1 $! \Counter_32bit1|DFF21|q~q\ $end
$var wire 1 %! \Counter_32bit1|DFF22|q~0_combout\ $end
$var wire 1 &! \Counter_32bit1|DFF22|q~feeder_combout\ $end
$var wire 1 '! \Counter_32bit1|DFF22|q~q\ $end
$var wire 1 (! \selector[2]~input_o\ $end
$var wire 1 )! \selector[1]~input_o\ $end
$var wire 1 *! \selector[0]~input_o\ $end
$var wire 1 +! \Mux7~0_combout\ $end
$var wire 1 ,! \Counter_32bit1|DFF23|q~0_combout\ $end
$var wire 1 -! \Counter_32bit1|DFF23|q~q\ $end
$var wire 1 .! \Mux6~0_combout\ $end
$var wire 1 /! \Counter_32bit1|DFF24|q~0_combout\ $end
$var wire 1 0! \Counter_32bit1|DFF24|q~q\ $end
$var wire 1 1! \Mux5~0_combout\ $end
$var wire 1 2! \Counter_32bit1|DFF25|q~0_combout\ $end
$var wire 1 3! \Counter_32bit1|DFF25|q~feeder_combout\ $end
$var wire 1 4! \Counter_32bit1|DFF25|q~q\ $end
$var wire 1 5! \Mux4~0_combout\ $end
$var wire 1 6! \Counter_32bit1|DFF26|q~0_combout\ $end
$var wire 1 7! \Counter_32bit1|DFF26|q~feeder_combout\ $end
$var wire 1 8! \Counter_32bit1|DFF26|q~q\ $end
$var wire 1 9! \Mux3~0_combout\ $end
$var wire 1 :! \Counter_32bit1|DFF27|q~0_combout\ $end
$var wire 1 ;! \Counter_32bit1|DFF27|q~feeder_combout\ $end
$var wire 1 <! \Counter_32bit1|DFF27|q~q\ $end
$var wire 1 =! \Mux2~0_combout\ $end
$var wire 1 >! \Counter_32bit1|DFF28|q~0_combout\ $end
$var wire 1 ?! \Counter_32bit1|DFF28|q~feeder_combout\ $end
$var wire 1 @! \Counter_32bit1|DFF28|q~q\ $end
$var wire 1 A! \Mux1~0_combout\ $end
$var wire 1 B! \Counter_32bit1|DFF29|q~q\ $end
$var wire 1 C! \Counter_32bit1|DFF29|q~0_combout\ $end
$var wire 1 D! \Counter_32bit1|DFF29|q~feeder_combout\ $end
$var wire 1 E! \Counter_32bit1|DFF29|q~DUPLICATE_q\ $end
$var wire 1 F! \Mux0~0_combout\ $end
$var wire 1 G! \Counter_32bit1|DFF29|ALT_INV_q~DUPLICATE_q\ $end
$var wire 1 H! \ALT_INV_selector[1]~input_o\ $end
$var wire 1 I! \ALT_INV_selector[0]~input_o\ $end
$var wire 1 J! \ALT_INV_selector[2]~input_o\ $end
$var wire 1 K! \Counter_32bit1|DFF0|ALT_INV_q~0_combout\ $end
$var wire 1 L! \Counter_32bit1|DFF2|ALT_INV_q~0_combout\ $end
$var wire 1 M! \Counter_32bit1|DFF3|ALT_INV_q~0_combout\ $end
$var wire 1 N! \Counter_32bit1|DFF4|ALT_INV_q~0_combout\ $end
$var wire 1 O! \Counter_32bit1|DFF5|ALT_INV_q~0_combout\ $end
$var wire 1 P! \Counter_32bit1|DFF6|ALT_INV_q~0_combout\ $end
$var wire 1 Q! \Counter_32bit1|DFF7|ALT_INV_q~0_combout\ $end
$var wire 1 R! \Counter_32bit1|DFF8|ALT_INV_q~0_combout\ $end
$var wire 1 S! \Counter_32bit1|DFF9|ALT_INV_q~0_combout\ $end
$var wire 1 T! \Counter_32bit1|DFF10|ALT_INV_q~0_combout\ $end
$var wire 1 U! \Counter_32bit1|DFF12|ALT_INV_q~0_combout\ $end
$var wire 1 V! \Counter_32bit1|DFF14|ALT_INV_q~0_combout\ $end
$var wire 1 W! \Counter_32bit1|DFF15|ALT_INV_q~0_combout\ $end
$var wire 1 X! \Counter_32bit1|DFF16|ALT_INV_q~0_combout\ $end
$var wire 1 Y! \Counter_32bit1|DFF17|ALT_INV_q~0_combout\ $end
$var wire 1 Z! \Counter_32bit1|DFF18|ALT_INV_q~0_combout\ $end
$var wire 1 [! \Counter_32bit1|DFF19|ALT_INV_q~0_combout\ $end
$var wire 1 \! \Counter_32bit1|DFF20|ALT_INV_q~0_combout\ $end
$var wire 1 ]! \Counter_32bit1|DFF21|ALT_INV_q~0_combout\ $end
$var wire 1 ^! \Counter_32bit1|DFF29|ALT_INV_q~0_combout\ $end
$var wire 1 _! \Counter_32bit1|DFF28|ALT_INV_q~0_combout\ $end
$var wire 1 `! \Counter_32bit1|DFF27|ALT_INV_q~0_combout\ $end
$var wire 1 a! \Counter_32bit1|DFF26|ALT_INV_q~0_combout\ $end
$var wire 1 b! \Counter_32bit1|DFF25|ALT_INV_q~0_combout\ $end
$var wire 1 c! \Counter_32bit1|DFF22|ALT_INV_q~0_combout\ $end
$var wire 1 d! \Counter_32bit1|DFF0|ALT_INV_q~q\ $end
$var wire 1 e! \Counter_32bit1|DFF1|ALT_INV_q~q\ $end
$var wire 1 f! \Counter_32bit1|DFF2|ALT_INV_q~q\ $end
$var wire 1 g! \Counter_32bit1|DFF3|ALT_INV_q~q\ $end
$var wire 1 h! \Counter_32bit1|DFF4|ALT_INV_q~q\ $end
$var wire 1 i! \Counter_32bit1|DFF5|ALT_INV_q~q\ $end
$var wire 1 j! \Counter_32bit1|DFF6|ALT_INV_q~q\ $end
$var wire 1 k! \Counter_32bit1|DFF7|ALT_INV_q~q\ $end
$var wire 1 l! \Counter_32bit1|DFF8|ALT_INV_q~q\ $end
$var wire 1 m! \Counter_32bit1|DFF9|ALT_INV_q~q\ $end
$var wire 1 n! \Counter_32bit1|DFF10|ALT_INV_q~q\ $end
$var wire 1 o! \Counter_32bit1|DFF11|ALT_INV_q~q\ $end
$var wire 1 p! \Counter_32bit1|DFF12|ALT_INV_q~q\ $end
$var wire 1 q! \Counter_32bit1|DFF13|ALT_INV_q~q\ $end
$var wire 1 r! \Counter_32bit1|DFF14|ALT_INV_q~q\ $end
$var wire 1 s! \Counter_32bit1|DFF15|ALT_INV_q~q\ $end
$var wire 1 t! \Counter_32bit1|DFF16|ALT_INV_q~q\ $end
$var wire 1 u! \Counter_32bit1|DFF17|ALT_INV_q~q\ $end
$var wire 1 v! \Counter_32bit1|DFF18|ALT_INV_q~q\ $end
$var wire 1 w! \Counter_32bit1|DFF19|ALT_INV_q~q\ $end
$var wire 1 x! \Counter_32bit1|DFF20|ALT_INV_q~q\ $end
$var wire 1 y! \Counter_32bit1|DFF21|ALT_INV_q~q\ $end
$var wire 1 z! \Counter_32bit1|DFF29|ALT_INV_q~q\ $end
$var wire 1 {! \Counter_32bit1|DFF28|ALT_INV_q~q\ $end
$var wire 1 |! \Counter_32bit1|DFF27|ALT_INV_q~q\ $end
$var wire 1 }! \Counter_32bit1|DFF26|ALT_INV_q~q\ $end
$var wire 1 ~! \Counter_32bit1|DFF25|ALT_INV_q~q\ $end
$var wire 1 !" \Counter_32bit1|DFF24|ALT_INV_q~q\ $end
$var wire 1 "" \Counter_32bit1|DFF23|ALT_INV_q~q\ $end
$var wire 1 #" \Counter_32bit1|DFF22|ALT_INV_q~q\ $end
$upscope $end
$upscope $end
$enddefinitions $end
#0
$dumpvars
0!
0-
1.
x/
10
11
12
13
14
15
06
xB
0C
1D
1E
0F
1G
0H
1I
1J
0K
1L
1M
0N
1O
1P
0Q
1R
1S
0T
1U
1V
0W
1X
1Y
0Z
1[
1\
0]
1^
1_
0`
1a
1b
0c
1d
0e
1f
1g
0h
1i
0j
1k
1l
0m
1n
1o
0p
1q
1r
0s
1t
1u
0v
1w
1x
0y
1z
1{
0|
1}
1~
0!!
1"!
1#!
0$!
1%!
1&!
0'!
0(!
0)!
0*!
0+!
1,!
0-!
0.!
1/!
00!
01!
12!
13!
04!
05!
16!
17!
08!
09!
1:!
1;!
0<!
0=!
1>!
1?!
0@!
0A!
0B!
1C!
1D!
0E!
0F!
1G!
1H!
1I!
1J!
0K!
0L!
0M!
0N!
0O!
0P!
0Q!
0R!
0S!
0T!
0U!
0V!
0W!
0X!
0Y!
0Z!
0[!
0\!
0]!
0^!
0_!
0`!
0a!
0b!
0c!
1d!
1e!
1f!
1g!
1h!
1i!
1j!
1k!
1l!
1m!
1n!
1o!
1p!
1q!
1r!
1s!
1t!
1u!
1v!
1w!
1x!
1y!
1z!
1{!
1|!
1}!
1~!
1!"
1""
1#"
0"
0#
0$
0%
0&
0'
0(
0)
0*
0+
0,
07
08
09
0:
0;
0<
0=
0>
0?
0@
0A
$end
#25
1!
16
1C
1F
0d!
0D
1K!
0E
#50
0!
06
0C
#75
1!
16
1C
0F
1d!
1D
1H
0e!
0K!
1E
0G
#100
0!
06
0C
#125
1!
16
1C
1F
0d!
0D
1K!
0E
#150
0!
06
0C
#175
1!
16
1C
0F
1d!
1D
0H
1e!
0K!
1E
1G
1K
0f!
0I
1L!
0J
#200
0!
06
0C
#225
1!
16
1C
1F
0d!
0D
1K!
0E
#250
0!
06
0C
#275
1!
16
1C
0F
1d!
1D
1H
0e!
0K!
1E
0G
#300
0!
06
0C
#325
1!
16
1C
1F
0d!
0D
1K!
0E
#350
0!
06
0C
#375
1!
16
1C
0F
1d!
1D
0H
1e!
0K!
1E
1G
0K
1f!
1I
1N
0g!
0L!
1J
0L
1M!
0M
#400
0!
06
0C
#425
1!
16
1C
1F
0d!
0D
1K!
0E
#450
0!
06
0C
#475
1!
16
1C
0F
1d!
1D
1H
0e!
0K!
1E
0G
#500
0!
06
0C
#525
1!
16
1C
1F
0d!
0D
1K!
0E
#550
0!
06
0C
#575
1!
16
1C
0F
1d!
1D
0H
1e!
0K!
1E
1G
1K
0f!
0I
1L!
0J
#600
0!
06
0C
#625
1!
16
1C
1F
0d!
0D
1K!
0E
#650
0!
06
0C
#675
1!
16
1C
0F
1d!
1D
1H
0e!
0K!
1E
0G
#700
0!
06
0C
#725
1!
16
1C
1F
0d!
0D
1K!
0E
#750
0!
06
0C
#775
1!
16
1C
0F
1d!
1D
0H
1e!
0K!
1E
1G
0K
1f!
1I
0N
1g!
0L!
1J
1L
1Q
0h!
0M!
1M
0O
1N!
0P
#800
0!
06
0C
#825
1!
16
1C
1F
0d!
0D
1K!
0E
#850
0!
06
0C
#875
1!
16
1C
0F
1d!
1D
1H
0e!
0K!
1E
0G
#900
0!
06
0C
#925
1!
16
1C
1F
0d!
0D
1K!
0E
#950
0!
06
0C
#975
1!
16
1C
0F
1d!
1D
0H
1e!
0K!
1E
1G
1K
0f!
0I
1L!
0J
#1000
0!
06
0C
#1025
1!
16
1C
1F
0d!
0D
1K!
0E
#1050
0!
06
0C
#1075
1!
16
1C
0F
1d!
1D
1H
0e!
0K!
1E
0G
#1100
0!
06
0C
#1125
1!
16
1C
1F
0d!
0D
1K!
0E
#1150
0!
06
0C
#1175
1!
16
1C
0F
1d!
1D
0H
1e!
0K!
1E
1G
0K
1f!
1I
1N
0g!
0L!
1J
0L
1M!
0M
#1200
0!
06
0C
#1225
1!
16
1C
1F
0d!
0D
1K!
0E
#1250
0!
06
0C
#1275
1!
16
1C
0F
1d!
1D
1H
0e!
0K!
1E
0G
#1300
0!
06
0C
#1325
1!
16
1C
1F
0d!
0D
1K!
0E
#1350
0!
06
0C
#1375
1!
16
1C
0F
1d!
1D
0H
1e!
0K!
1E
1G
1K
0f!
0I
1L!
0J
#1400
0!
06
0C
#1425
1!
16
1C
1F
0d!
0D
1K!
0E
#1450
0!
06
0C
#1475
1!
16
1C
0F
1d!
1D
1H
0e!
0K!
1E
0G
#1500
0!
06
0C
#1525
1!
16
1C
1F
0d!
0D
1K!
0E
#1550
0!
06
0C
#1575
1!
16
1C
0F
1d!
1D
0H
1e!
0K!
1E
1G
0K
1f!
1I
0N
1g!
0L!
1J
1L
0Q
1h!
0M!
1M
1O
1T
0i!
0N!
1P
0R
1O!
0S
#1600
0!
06
0C
#1625
1!
16
1C
1F
0d!
0D
1K!
0E
#1650
0!
06
0C
#1675
1!
16
1C
0F
1d!
1D
1H
0e!
0K!
1E
0G
#1700
0!
06
0C
#1725
1!
16
1C
1F
0d!
0D
1K!
0E
#1750
0!
06
0C
#1775
1!
16
1C
0F
1d!
1D
0H
1e!
0K!
1E
1G
1K
0f!
0I
1L!
0J
#1800
0!
06
0C
#1825
1!
16
1C
1F
0d!
0D
1K!
0E
#1850
0!
06
0C
#1875
1!
16
1C
0F
1d!
1D
1H
0e!
0K!
1E
0G
#1900
0!
06
0C
#1925
1!
16
1C
1F
0d!
0D
1K!
0E
#1950
0!
06
0C
#1975
1!
16
1C
0F
1d!
1D
0H
1e!
0K!
1E
1G
0K
1f!
1I
1N
0g!
0L!
1J
0L
1M!
0M
#2000
0!
06
0C
#2025
1!
16
1C
1F
0d!
0D
1K!
0E
#2050
0!
06
0C
#2075
1!
16
1C
0F
1d!
1D
1H
0e!
0K!
1E
0G
#2100
0!
06
0C
#2125
1!
16
1C
1F
0d!
0D
1K!
0E
#2150
0!
06
0C
#2175
1!
16
1C
0F
1d!
1D
0H
1e!
0K!
1E
1G
1K
0f!
0I
1L!
0J
#2200
0!
06
0C
#2225
1!
16
1C
1F
0d!
0D
1K!
0E
#2250
0!
06
0C
#2275
1!
16
1C
0F
1d!
1D
1H
0e!
0K!
1E
0G
#2300
0!
06
0C
#2325
1!
16
1C
1F
0d!
0D
1K!
0E
#2350
0!
06
0C
#2375
1!
16
1C
0F
1d!
1D
0H
1e!
0K!
1E
1G
0K
1f!
1I
0N
1g!
0L!
1J
1L
1Q
0h!
0M!
1M
0O
1N!
0P
#2400
0!
06
0C
#2425
1!
16
1C
1F
0d!
0D
1K!
0E
#2450
0!
06
0C
#2475
1!
16
1C
0F
1d!
1D
1H
0e!
0K!
1E
0G
#2500
0!
06
0C
#2525
1!
16
1C
1F
0d!
0D
1K!
0E
#2550
0!
06
0C
#2575
1!
16
1C
0F
1d!
1D
0H
1e!
0K!
1E
1G
1K
0f!
0I
1L!
0J
#2600
0!
06
0C
#2625
1!
16
1C
1F
0d!
0D
1K!
0E
#2650
0!
06
0C
#2675
1!
16
1C
0F
1d!
1D
1H
0e!
0K!
1E
0G
#2700
0!
06
0C
#2725
1!
16
1C
1F
0d!
0D
1K!
0E
#2750
0!
06
0C
#2775
1!
16
1C
0F
1d!
1D
0H
1e!
0K!
1E
1G
0K
1f!
1I
1N
0g!
0L!
1J
0L
1M!
0M
#2800
0!
06
0C
#2825
1!
16
1C
1F
0d!
0D
1K!
0E
#2850
0!
06
0C
#2875
1!
16
1C
0F
1d!
1D
1H
0e!
0K!
1E
0G
#2900
0!
06
0C
#2925
1!
16
1C
1F
0d!
0D
1K!
0E
#2950
0!
06
0C
#2975
1!
16
1C
0F
1d!
1D
0H
1e!
0K!
1E
1G
1K
0f!
0I
1L!
0J
#3000
0!
06
0C
#3025
1!
16
1C
1F
0d!
0D
1K!
0E
#3050
0!
06
0C
#3075
1!
16
1C
0F
1d!
1D
1H
0e!
0K!
1E
0G
#3100
0!
06
0C
#3125
1!
16
1C
1F
0d!
0D
1K!
0E
#3150
0!
06
0C
#3175
1!
16
1C
0F
1d!
1D
0H
1e!
0K!
1E
1G
0K
1f!
1I
0N
1g!
0L!
1J
1L
0Q
1h!
0M!
1M
1O
0T
1i!
0N!
1P
1R
1W
0j!
0O!
1S
0U
1P!
0V
#3200
0!
06
0C
#3225
1!
16
1C
1F
0d!
0D
1K!
0E
#3250
0!
06
0C
#3275
1!
16
1C
0F
1d!
1D
1H
0e!
0K!
1E
0G
#3300
0!
06
0C
#3325
1!
16
1C
1F
0d!
0D
1K!
0E
#3350
0!
06
0C
#3375
1!
16
1C
0F
1d!
1D
0H
1e!
0K!
1E
1G
1K
0f!
0I
1L!
0J
#3400
0!
06
0C
#3425
1!
16
1C
1F
0d!
0D
1K!
0E
#3450
0!
06
0C
#3475
1!
16
1C
0F
1d!
1D
1H
0e!
0K!
1E
0G
#3500
0!
06
0C
#3525
1!
16
1C
1F
0d!
0D
1K!
0E
#3550
0!
06
0C
#3575
1!
16
1C
0F
1d!
1D
0H
1e!
0K!
1E
1G
0K
1f!
1I
1N
0g!
0L!
1J
0L
1M!
0M
#3600
0!
06
0C
#3625
1!
16
1C
1F
0d!
0D
1K!
0E
#3650
0!
06
0C
#3675
1!
16
1C
0F
1d!
1D
1H
0e!
0K!
1E
0G
#3700
0!
06
0C
#3725
1!
16
1C
1F
0d!
0D
1K!
0E
#3750
0!
06
0C
#3775
1!
16
1C
0F
1d!
1D
0H
1e!
0K!
1E
1G
1K
0f!
0I
1L!
0J
#3800
0!
06
0C
#3825
1!
16
1C
1F
0d!
0D
1K!
0E
#3850
0!
06
0C
#3875
1!
16
1C
0F
1d!
1D
1H
0e!
0K!
1E
0G
#3900
0!
06
0C
#3925
1!
16
1C
1F
0d!
0D
1K!
0E
#3950
0!
06
0C
#3975
1!
16
1C
0F
1d!
1D
0H
1e!
0K!
1E
1G
0K
1f!
1I
0N
1g!
0L!
1J
1L
1Q
0h!
0M!
1M
0O
1N!
0P
#4000
0!
06
0C
#4025
1!
16
1C
1F
0d!
0D
1K!
0E
#4050
0!
06
0C
#4075
1!
16
1C
0F
1d!
1D
1H
0e!
0K!
1E
0G
#4100
0!
06
0C
#4125
1!
16
1C
1F
0d!
0D
1K!
0E
#4150
0!
06
0C
#4175
1!
16
1C
0F
1d!
1D
0H
1e!
0K!
1E
1G
1K
0f!
0I
1L!
0J
#4200
0!
06
0C
#4225
1!
16
1C
1F
0d!
0D
1K!
0E
#4250
0!
06
0C
#4275
1!
16
1C
0F
1d!
1D
1H
0e!
0K!
1E
0G
#4300
0!
06
0C
#4325
1!
16
1C
1F
0d!
0D
1K!
0E
#4350
0!
06
0C
#4375
1!
16
1C
0F
1d!
1D
0H
1e!
0K!
1E
1G
0K
1f!
1I
1N
0g!
0L!
1J
0L
1M!
0M
#4400
0!
06
0C
#4425
1!
16
1C
1F
0d!
0D
1K!
0E
#4450
0!
06
0C
#4475
1!
16
1C
0F
1d!
1D
1H
0e!
0K!
1E
0G
#4500
0!
06
0C
#4525
1!
16
1C
1F
0d!
0D
1K!
0E
#4550
0!
06
0C
#4575
1!
16
1C
0F
1d!
1D
0H
1e!
0K!
1E
1G
1K
0f!
0I
1L!
0J
#4600
0!
06
0C
#4625
1!
16
1C
1F
0d!
0D
1K!
0E
#4650
0!
06
0C
#4675
1!
16
1C
0F
1d!
1D
1H
0e!
0K!
1E
0G
#4700
0!
06
0C
#4725
1!
16
1C
1F
0d!
0D
1K!
0E
#4750
0!
06
0C
#4775
1!
16
1C
0F
1d!
1D
0H
1e!
0K!
1E
1G
0K
1f!
1I
0N
1g!
0L!
1J
1L
0Q
1h!
0M!
1M
1O
1T
0i!
0N!
1P
0R
1O!
0S
#4800
0!
06
0C
#4825
1!
16
1C
1F
0d!
0D
1K!
0E
#4850
0!
06
0C
#4875
1!
16
1C
0F
1d!
1D
1H
0e!
0K!
1E
0G
#4900
0!
06
0C
#4925
1!
16
1C
1F
0d!
0D
1K!
0E
#4950
0!
06
0C
#4975
1!
16
1C
0F
1d!
1D
0H
1e!
0K!
1E
1G
1K
0f!
0I
1L!
0J
#5000
0!
06
0C
#5025
1!
16
1C
1F
0d!
0D
1K!
0E
#5050
0!
06
0C
#5075
1!
16
1C
0F
1d!
1D
1H
0e!
0K!
1E
0G
#5100
0!
06
0C
#5125
1!
16
1C
1F
0d!
0D
1K!
0E
#5150
0!
06
0C
#5175
1!
16
1C
0F
1d!
1D
0H
1e!
0K!
1E
1G
0K
1f!
1I
1N
0g!
0L!
1J
0L
1M!
0M
#5200
0!
06
0C
#5225
1!
16
1C
1F
0d!
0D
1K!
0E
#5250
0!
06
0C
#5275
1!
16
1C
0F
1d!
1D
1H
0e!
0K!
1E
0G
#5300
0!
06
0C
#5325
1!
16
1C
1F
0d!
0D
1K!
0E
#5350
0!
06
0C
#5375
1!
16
1C
0F
1d!
1D
0H
1e!
0K!
1E
1G
1K
0f!
0I
1L!
0J
#5400
0!
06
0C
#5425
1!
16
1C
1F
0d!
0D
1K!
0E
#5450
0!
06
0C
#5475
1!
16
1C
0F
1d!
1D
1H
0e!
0K!
1E
0G
#5500
0!
06
0C
#5525
1!
16
1C
1F
0d!
0D
1K!
0E
#5550
0!
06
0C
#5575
1!
16
1C
0F
1d!
1D
0H
1e!
0K!
1E
1G
0K
1f!
1I
0N
1g!
0L!
1J
1L
1Q
0h!
0M!
1M
0O
1N!
0P
#5600
0!
06
0C
#5625
1!
16
1C
1F
0d!
0D
1K!
0E
#5650
0!
06
0C
#5675
1!
16
1C
0F
1d!
1D
1H
0e!
0K!
1E
0G
#5700
0!
06
0C
#5725
1!
16
1C
1F
0d!
0D
1K!
0E
#5750
0!
06
0C
#5775
1!
16
1C
0F
1d!
1D
0H
1e!
0K!
1E
1G
1K
0f!
0I
1L!
0J
#5800
0!
06
0C
#5825
1!
16
1C
1F
0d!
0D
1K!
0E
#5850
0!
06
0C
#5875
1!
16
1C
0F
1d!
1D
1H
0e!
0K!
1E
0G
#5900
0!
06
0C
#5925
1!
16
1C
1F
0d!
0D
1K!
0E
#5950
0!
06
0C
#5975
1!
16
1C
0F
1d!
1D
0H
1e!
0K!
1E
1G
0K
1f!
1I
1N
0g!
0L!
1J
0L
1M!
0M
#6000
0!
06
0C
#6025
1!
16
1C
1F
0d!
0D
1K!
0E
#6050
0!
06
0C
#6075
1!
16
1C
0F
1d!
1D
1H
0e!
0K!
1E
0G
#6100
0!
06
0C
#6125
1!
16
1C
1F
0d!
0D
1K!
0E
#6150
0!
06
0C
#6175
1!
16
1C
0F
1d!
1D
0H
1e!
0K!
1E
1G
1K
0f!
0I
1L!
0J
#6200
0!
06
0C
#6225
1!
16
1C
1F
0d!
0D
1K!
0E
#6250
0!
06
0C
#6275
1!
16
1C
0F
1d!
1D
1H
0e!
0K!
1E
0G
#6300
0!
06
0C
#6325
1!
16
1C
1F
0d!
0D
1K!
0E
#6350
0!
06
0C
#6375
1!
16
1C
0F
1d!
1D
0H
1e!
0K!
1E
1G
0K
1f!
1I
0N
1g!
0L!
1J
1L
0Q
1h!
0M!
1M
1O
0T
1i!
0N!
1P
1R
0W
1j!
0O!
1S
1U
1Z
0k!
0P!
1V
0X
1Q!
0Y
#6400
0!
06
0C
#6425
1!
16
1C
1F
0d!
0D
1K!
0E
#6450
0!
06
0C
#6475
1!
16
1C
0F
1d!
1D
1H
0e!
0K!
1E
0G
#6500
0!
06
0C
#6525
1!
16
1C
1F
0d!
0D
1K!
0E
#6550
0!
06
0C
#6575
1!
16
1C
0F
1d!
1D
0H
1e!
0K!
1E
1G
1K
0f!
0I
1L!
0J
#6600
0!
06
0C
#6625
1!
16
1C
1F
0d!
0D
1K!
0E
#6650
0!
06
0C
#6675
1!
16
1C
0F
1d!
1D
1H
0e!
0K!
1E
0G
#6700
0!
06
0C
#6725
1!
16
1C
1F
0d!
0D
1K!
0E
#6750
0!
06
0C
#6775
1!
16
1C
0F
1d!
1D
0H
1e!
0K!
1E
1G
0K
1f!
1I
1N
0g!
0L!
1J
0L
1M!
0M
#6800
0!
06
0C
#6825
1!
16
1C
1F
0d!
0D
1K!
0E
#6850
0!
06
0C
#6875
1!
16
1C
0F
1d!
1D
1H
0e!
0K!
1E
0G
#6900
0!
06
0C
#6925
1!
16
1C
1F
0d!
0D
1K!
0E
#6950
0!
06
0C
#6975
1!
16
1C
0F
1d!
1D
0H
1e!
0K!
1E
1G
1K
0f!
0I
1L!
0J
#7000
0!
06
0C
#7025
1!
16
1C
1F
0d!
0D
1K!
0E
#7050
0!
06
0C
#7075
1!
16
1C
0F
1d!
1D
1H
0e!
0K!
1E
0G
#7100
0!
06
0C
#7125
1!
16
1C
1F
0d!
0D
1K!
0E
#7150
0!
06
0C
#7175
1!
16
1C
0F
1d!
1D
0H
1e!
0K!
1E
1G
0K
1f!
1I
0N
1g!
0L!
1J
1L
1Q
0h!
0M!
1M
0O
1N!
0P
#7200
0!
06
0C
#7225
1!
16
1C
1F
0d!
0D
1K!
0E
#7250
0!
06
0C
#7275
1!
16
1C
0F
1d!
1D
1H
0e!
0K!
1E
0G
#7300
0!
06
0C
#7325
1!
16
1C
1F
0d!
0D
1K!
0E
#7350
0!
06
0C
